{
  "buildings" : {
    "building1" : {
      "imageUrl" : "https://firebasestorage.googleapis.com/v0/b/szteclassroomfinder.appspot.com/o/building_pictures%2Fbolyai_intezet.png?alt=media&token=6d8c6730-79db-4c22-9f04-5a448c485a15",
      "name" : "Bolyai Intézet",
      "streetName" : "Aradi vértanúk tere"
    },
    "building2" : {
      "imageUrl" : "https://firebasestorage.googleapis.com/v0/b/szteclassroomfinder.appspot.com/o/building_pictures%2Firinyi_epulet.jpg?alt=media&token=a0bd26e9-829a-426f-88a4-68d52e4d5910",
      "name" : "Irinyi Épület",
      "streetName" : "Tisza Lajos krt. 103."
    },
    "building3" : {
      "imageUrl" : "https://firebasestorage.googleapis.com/v0/b/szteclassroomfinder.appspot.com/o/building_pictures%2Ftik.jpg?alt=media&token=7b98f875-6fd7-45e1-a056-b3c4a6041129",
      "name" : "TIK",
      "streetName" : "Ady tér 10"
    }
  },
  "classrooms" : {
    "BO-202-3" : {
      "buildingName" : "Bolyai Intézet",
      "direction" : "none",
      "name" : "Bay Zoltán Tanterem",
      "navNode" : "IR-1",
      "position" : 0
    },
    "BO-216-3" : {
      "buildingName" : "Bolyai Intézet",
      "direction" : "none",
      "name" : "Bolyai János terem",
      "navNode" : "IR-1",
      "position" : 0
    },
    "IR-010-3" : {
      "buildingName" : "Irinyi Épület",
      "direction" : "right",
      "name" : "Irinyi 010 szemináriumi terem",
      "navNode" : "IR-12",
      "position" : "1"
    },
    "IR-011-3" : {
      "buildingName" : "Irinyi Épület",
      "direction" : "right",
      "name" : "Irinyi 011 ipari inf.- labor",
      "navNode" : "IR-12",
      "position" : "2"
    },
    "IR-012-3" : {
      "buildingName" : "Irinyi Épület",
      "direction" : "right",
      "name" : "Irinyi 012 képfeldolgozó labor",
      "navNode" : "IR-12",
      "position" : "3"
    },
    "IR-012A-3" : {
      "buildingName" : "Irinyi Épület",
      "direction" : "right",
      "name" : "Irinyi 012A képfeldolgozó labor",
      "navNode" : "IR-12",
      "position" : "4"
    },
    "IR-012B-3" : {
      "buildingName" : "Irinyi Épület",
      "direction" : "right",
      "name" : "Irinyi 012B képfeldolgozó labor",
      "navNode" : "IR-12",
      "position" : "3"
    },
    "IR-012C-3" : {
      "buildingName" : "Irinyi Épület",
      "direction" : "right",
      "name" : "Irinyi 012C képfeldolgozó labor",
      "navNode" : "IR-12",
      "position" : "4"
    },
    "IR-107-3" : {
      "buildingName" : "Irinyi Épület",
      "direction" : "right",
      "name" : "Irinyi 107 szoftverminőség labor",
      "navNode" : "IR-7",
      "position" : "1"
    },
    "IR-108-3" : {
      "buildingName" : "Irinyi Épület",
      "direction" : "right",
      "name" : "Irinyi 108 \"hálozatok\" labor",
      "navNode" : "IR-7",
      "position" : "2"
    },
    "IR-109-3" : {
      "buildingName" : "Irinyi Épület",
      "direction" : "right",
      "name" : "Irinyi 109 \"beágyazott\" labor",
      "navNode" : "IR-7",
      "position" : "3"
    },
    "IR-110-3" : {
      "buildingName" : "Irinyi Épület",
      "direction" : "right",
      "name" : "Irinyi 110 mobil- és AAL- labor",
      "navNode" : "IR-7",
      "position" : "4"
    },
    "IR-111-3" : {
      "buildingName" : "Irinyi Épület",
      "direction" : "right",
      "name" : "Irinyi 111 általános labor",
      "navNode" : "IR-7",
      "position" : "5"
    },
    "IR-217-3" : {
      "buildingName" : "Irinyi Épület",
      "direction" : "ahead",
      "name" : "Irinyi 217 tanterem",
      "navNode" : "IR-10",
      "position" : "1"
    },
    "IR-218-3" : {
      "buildingName" : "Irinyi Épület",
      "direction" : "left",
      "name" : "Irinyi 218 tanterem",
      "navNode" : "IR-11",
      "position" : "5"
    },
    "IR-219-3" : {
      "buildingName" : "Irinyi Épület",
      "direction" : "left",
      "name" : "Irinyi 219 tanterem",
      "navNode" : "IR-11",
      "position" : "5"
    },
    "IR-220-3" : {
      "buildingName" : "Irinyi Épület",
      "direction" : "left",
      "name" : "Irinyi 220 tanterem",
      "navNode" : "IR-11",
      "position" : "4"
    },
    "IR-221-3" : {
      "buildingName" : "Irinyi Épület",
      "direction" : "left",
      "name" : "Irinyi 221 tanterem",
      "navNode" : "IR-11",
      "position" : "3"
    },
    "IR-222-3" : {
      "buildingName" : "Irinyi Épület",
      "direction" : "left",
      "name" : "Irinyi 222 tanterem",
      "navNode" : "IR-11",
      "position" : "2"
    },
    "IR-223-3" : {
      "buildingName" : "Irinyi Épület",
      "direction" : "left",
      "name" : "Irinyi 223 tanterem",
      "navNode" : "IR-11",
      "position" : "1"
    },
    "IR-224-3" : {
      "buildingName" : "Irinyi Épület",
      "direction" : "right",
      "name" : "Irinyi 224 tanterem",
      "navNode" : "IR-8",
      "position" : "1"
    },
    "IR-225-3" : {
      "buildingName" : "Irinyi Épület",
      "direction" : "right",
      "name" : "Irinyi 225 tanterem",
      "navNode" : "IR-8",
      "position" : "2"
    },
    "IR-226-3" : {
      "buildingName" : "Irinyi Épület",
      "direction" : "right",
      "name" : "Irinyi 226 tanterem",
      "navNode" : "IR-8",
      "position" : "3"
    },
    "IR-227-3" : {
      "buildingName" : "Irinyi Épület",
      "direction" : "right",
      "name" : "Irinyi 227 tanterem",
      "navNode" : "IR-9",
      "position" : "1"
    },
    "TIK-001-0" : {
      "buildingName" : "TIK",
      "direction" : "none",
      "name" : "TIK Kongresszusi terem",
      "navNode" : "IR-1",
      "position" : 1
    },
    "TIK-A01-0" : {
      "buildingName" : "TIK",
      "direction" : "none",
      "name" : "TIK Alagsor I. Előadó",
      "navNode" : "IR-1",
      "position" : 1
    },
    "TIK-A02-0" : {
      "buildingName" : "TIK",
      "direction" : "none",
      "name" : "TIK Alagsor II. Előadó",
      "navNode" : "IR-1",
      "position" : 1
    }
  },
  "faculties" : {
    "BTK" : {
      "bannerUrl" : "2wCEAAkGBxAQEBUQERAVFhUWFR8WGBgWGBoXFRcXFxcYFhUZGhUYHSggGB0lHRUVITEhJyorLi4vFx8zODMtNygtLysBCgoKDg0OGxAQGi0lHyUtLS0tLS0tLS0tLi0tLSsrLS8tLS0rKy0tLS0tKy0tLS0tLS0tLS0tLS0tLS0tLS0tLf",
      "fullName" : "Bölcsészet- és Társadalomtudományi Kar"
    },
    "TTIK" : {
      "bannerUrl" : "http://www.sci.u-szeged.hu/site/upload/2012/03/logo_kerek_hun.jpg",
      "fullName" : "Természet Tudomány és Informatika Kar"
    }
  },
  "lecturer" : {
    "ALZHAAS_SZE" : {
      "email" : "alexin@inf.u-szeged.hu",
      "name" : "Alexin Zoltán Dr.",
      "officeKey" : "IR-218-3"
    },
    "DOJFAB_T_SZE" : {
      "email" : "dombijd@inf.u-szeged.hu",
      "name" : "Dombi József Dániel Dr.",
      "officeKey" : "IR-218-3"
    },
    "NAAHAFS_SZE" : {
      "email" : "nagya@inf.u-szeged.hu",
      "name" : "Dr. Nagy Antal",
      "officeKey" : "IR-218-3"
    }
  },
  "navNodes" : {
    "IR-1" : {
      "action" : "none",
      "buildingName" : "Irinyi Épület",
      "parentId" : "none",
      "type" : "front_entrance"
    },
    "IR-10" : {
      "action" : "left",
      "buildingName" : "Irinyi Épület",
      "parentId" : "IR-8",
      "type" : "corridor"
    },
    "IR-11" : {
      "action" : "door_then_right",
      "buildingName" : "Irinyi Épület",
      "parentId" : "IR-6",
      "type" : "corridor"
    },
    "IR-12" : {
      "action" : "door_left",
      "buildingName" : "Irinyi Épület",
      "parentId" : "IR-4",
      "type" : "corridor"
    },
    "IR-2" : {
      "action" : "forward",
      "buildingName" : "Irinyi Épület",
      "parentId" : "IR-1",
      "type" : "courtyard"
    },
    "IR-3" : {
      "action" : "door_right",
      "buildingName" : "Irinyi Épület",
      "parentId" : "IR-1",
      "type" : "staircase"
    },
    "IR-4" : {
      "action" : "door_ahead",
      "buildingName" : "Irinyi Épület",
      "parentId" : "IR-2",
      "type" : "staircase"
    },
    "IR-5" : {
      "action" : "up_level_1",
      "buildingName" : "Irinyi Épület",
      "parentId" : "IR-4",
      "type" : "level_1"
    },
    "IR-6" : {
      "action" : "up_level_2",
      "buildingName" : "Irinyi Épület",
      "parentId" : "IR-4",
      "type" : "level_2"
    },
    "IR-7" : {
      "action" : "door",
      "buildingName" : "Irinyi Épület",
      "parentId" : "IR-4",
      "type" : "corridor"
    },
    "IR-8" : {
      "action" : "door_then_left",
      "buildingName" : "Irinyi Épület",
      "parentId" : "IR-6",
      "type" : "corridor"
    },
    "IR-9" : {
      "action" : "forward",
      "buildingName" : "Irinyi Épület",
      "parentId" : "IR-8",
      "type" : "corridor"
    }
  }
}
